<?xml version="1.0" encoding="UTF-8"?>
<svg width="1304px" height="820px" viewBox="0 0 1304 820" version="1.1" xmlns="http://www.w3.org/2000/svg" xmlns:xlink="http://www.w3.org/1999/xlink">
    <!-- Generator: Sketch 56.2 (81672) - https://sketch.com -->
    <title>Group</title>
    <desc>Created with Sketch.</desc>
    <defs>
        <linearGradient x1="0%" y1="69.7776327%" x2="83.1728981%" y2="23.0386539%" id="linearGradient-1">
            <stop stop-color="#FFFB87" offset="0%"></stop>
            <stop stop-color="#FF72D4" offset="100%"></stop>
        </linearGradient>
        <linearGradient x1="4.22646605%" y1="69.9317573%" x2="95.6047454%" y2="30.0349162%" id="linearGradient-2">
            <stop stop-color="#EAEC50" offset="0%"></stop>
            <stop stop-color="#DD65BA" offset="48.3873522%"></stop>
            <stop stop-color="#6654DE" offset="100%"></stop>
        </linearGradient>
        <linearGradient x1="95.711263%" y1="28.1379186%" x2="0%" y2="69.026511%" id="linearGradient-3">
            <stop stop-color="#76EAF5" offset="0%"></stop>
            <stop stop-color="#FE7DD8" offset="52.3147171%"></stop>
            <stop stop-color="#FBFC8E" offset="100%"></stop>
        </linearGradient>
        <linearGradient x1="35.2175151%" y1="0%" x2="81.1075116%" y2="92.5884434%" id="linearGradient-4">
            <stop stop-color="#53EEFF" offset="0%"></stop>
            <stop stop-color="#FA6AFF" offset="100%"></stop>
        </linearGradient>
        <linearGradient x1="42.8084326%" y1="0%" x2="65.1335697%" y2="92.5884434%" id="linearGradient-5">
            <stop stop-color="#34B3D2" offset="0%"></stop>
            <stop stop-color="#AC18B3" offset="100%"></stop>
        </linearGradient>
        <linearGradient x1="95.0135031%" y1="43.7623838%" x2="4.74247685%" y2="56.1027282%" id="linearGradient-6">
            <stop stop-color="#FDFFA9" offset="0%"></stop>
            <stop stop-color="#7EFFFE" offset="100%"></stop>
        </linearGradient>
        <linearGradient x1="96.8394482%" y1="42.4932138%" x2="9.50920791%" y2="56.2111428%" id="linearGradient-7">
            <stop stop-color="#D9FB59" offset="0%"></stop>
            <stop stop-color="#68BBFF" offset="100%"></stop>
        </linearGradient>
    </defs>
    <g id="Page-1" stroke="none" stroke-width="1" fill="none" fill-rule="evenodd">
        <g id="the-competition-1.0" transform="translate(-80.000000, -110.000000)">
            <g id="Group" transform="translate(80.000000, 110.000000)">
                <path d="M215,406.037736 L307.766667,311 L336,530 L215,406.037736 Z M356,551 L352,265.142857 L384,232 L456,306.571429 L384,580 L356,551 Z M425,538 L494,344 L563,410.042553 L425,538 Z" id="Combined-Shape-Copy" fill="#FFFFFF"></path>
                <polygon id="Path-6" fill="url(#linearGradient-1)" opacity="0.6" points="336 530 215 406 1 530 0 730"></polygon>
                <polygon id="Path-8" fill="url(#linearGradient-2)" opacity="0.55" points="215 406 308 311 0 487 0 530"></polygon>
                <polygon id="Path-9" fill="url(#linearGradient-3)" opacity="0.5" points="356 551 384 580 0 820 0 770"></polygon>
                <polygon id="Path-11" fill="url(#linearGradient-4)" opacity="0.5" points="352 265 160 0 275 0 384 232"></polygon>
                <polygon id="Path-12" fill="url(#linearGradient-5)" opacity="0.5" points="384 232 456 307 316 0 275 0"></polygon>
                <polygon id="Path-13" fill="url(#linearGradient-6)" opacity="0.5" points="494 344 1235 91 1304 149 563 411"></polygon>
                <polygon id="Path-14" fill="url(#linearGradient-7)" opacity="0.5" points="425 538 563 411 1304 149 1255 248"></polygon>
            </g>
        </g>
    </g>
</svg>